Project 1: Wrangling, Exploration, Visualization
…
Introduction

The datasets I am using are lincoln_weather and SeatacWeather which I was able to find on the R data sets and packages. With these datasets I can compare and constrast weather trends in the Lincoln, Nebraska area as well as in the Seatlle-Tacoma Area. The variables will be month, year, max temp, min temp, and precipitation. While each of the datasets have more extensive variables I think the ones I chose will be beneficial in discovering any weather patterns with the associated areas. With these variables it will be interesting to find out if there is any correlation between the temperature or precipitation during certain times of the year in two very different geographical regions.

library(tidyverse)
library(plyr)
library(dplyr)
packageVersion("dplyr")

## [1] '1.0.2'

library(ggridges)
lincoln_weather

## # A tibble: 366 x 24
##    CST   `Max Temperatur `Mean Temperatu `Min Temperatur `Max Dew Point 
##    <chr>            <int>            <int>            <int>            <int>
##  1 2016               37               24               11               19
##  2 2016               41               23                5               22
##  3 2016               37               23                8               23
##  4 2016               30               17                4               24
##  5 2016               38               29               19               29
##  6 2016               34               33               32               33
##  7 2016               33               30               27               32
##  8 2016               28               25               22               25
##  9 2016               22                9               -4               17
## 10 2016               31               11               -9               20
## #  with 356 more rows, and 19 more variables: `Mean Dew Point [F]` <int>, `Min
## #   Dewpoint [F]` <int>, `Max Humidity` <int>, `Mean Humidity` <int>, `Min
## #   Humidity` <int>, `Max Sea Level Pressure [In]` <dbl>, `Mean Sea Level
## #   Pressure [In]` <dbl>, `Min Sea Level Pressure [In]` <dbl>, `Max Visibility
## #   [Miles]` <int>, `Mean Visibility [Miles]` <int>, `Min Visibility
## #   [Miles]` <int>, `Max Wind Speed [MPH]` <int>, `Mean Wind Speed[MPH]` <int>,
## #   `Max Gust Speed [MPH]` <int>, `Precipitation [In]` <chr>, CloudCover <int>,
## #   Events <chr>, `WindDir [Degrees]` <int>, Month <fct>
…
##        Avg       SD Min  Max UniqueTemps
## 1 33.02564 9.139956  11 50.5          31

Weather %>% filter(Month == "6") %>% summarise(Avg = mean(MedianTemp), 
    SD = sd(MedianTemp), Min = min(MedianTemp), Max = max(MedianTemp), 
    UniqueTemps = n_distinct(MedianTemp))

##        Avg       SD  Min Max UniqueTemps
## 1 73.48077 5.750619 62.5  82          19

Weather %>% filter(Location == "Lincoln") %>% select(Precipitation, 
    MinTemp, MaxTemp) %>% arrange(desc(Precipitation))

## # A tibble: 305 x 3
##    Precipitation MinTemp MaxTemp
##            <dbl>   <int>   <int>
##  1          2.59      60      83
##  2          2.07      39      49
##  3          1.82      41      46
##  4          1.72      42      61
##  5          1.57      40      45
##  6          1.42      66      96
##  7          1.27      49      74
##  8          1.07      43      63
##  9          1.06      66      93
## 10          0.92      59      74
## #  with 295 more rows

Weather %>% filter(Location == "SeaTac") %>% select(Precipitation, 
    MinTemp, MaxTemp) %>% arrange(desc(Precipitation))

## # A tibble: 62 x 3
##    Precipitation MinTemp MaxTemp
##            <dbl>   <int>   <int>
##  1          1.77      45      56
##  2          1.01      43      48
##  3          0.93      40      49
##  4          0.85      50      53
##  5          0.36      36      44
##  6          0.25      37      44
##  7          0.25      48      51
##  8          0.24      41      50
##  9          0.19      31      43
## 10          0.18      28      35
## #  with 52 more rows
…
